65404;60;KGNALEMPAPELADORA329,5 Kg(PASILLO CELDAS 2(RECEPCION))  |  
11055;100;KGNAL553 Kg(PLATAFORMA BOBINAS)  |  
47800;15;KGNAL30,8 Kg(F4B)  |  103,3 Kg(F4A)  |  103,3 Kg(E4A)  |  96,9 Kg(D3C)  |  71,4 Kg(ALMACEN)  |  
47819;50;KGNALPTE LLEGADA,287,1 Kg(RETAL ALMACEN)  |  
47702;70;KGNAL224 Kg(RECEPCION)  |  3,5 Kg(F5E)  |  11,5 Kg(F4D)  |  2 Kg(E5A)  |  19,6 Kg(E4D)  |  8,8 Kg(E4A)  |  348,8 Kg(E2C)  |  416,4 Kg(E1D)  |  41,96 Kg(ALMACEN)  |  
47825;40;KGNAL17,2 Kg(RETAL ALMACEN)  |  22,5 Kg(F4A)  |  164,8 Kg(F2C)  |  29,6 Kg(F2B)  |  91 Kg(E5B)  |  116,4 Kg(D3B)  |  175,6 Kg(D1D)  |  253 Kg(D1C)  |  30,1 Kg(ALMACEN)  |  
67786;30;KGNAL111 Kg(E2E)  |  
67532;15;KGNAL446,4 Kg(G4C)  |  81,4 Kg(D5D)  |  81,4 Kg(D1D)  |  253,2 Kg(ALMACEN)  |  
47807;50;KGNAL2 ROLLOS5,4 Kg(RETAL ALMACEN)  |  19,7 Kg(F3D)  |  295,2 Kg(D3D)  |  
67232;20;KGNAL
47387;70;KGNAL6,4 Kg(G5D)  |  170,4 Kg(F1B)  |  0,6 Kg(E2E)  |  402 Kg(D2B)  |  
28717;190;KGNAL915,38 Kg(IMP-46925)  |  1436,87 Kg(IMP-46296)  |  147,08 Kg(D4A)  |  488,92 Kg(D3E)  |  27,78 Kg(D3A)  |  
455;20;KGNAL138,8 Kg(C2C)  |  64,47 Kg(ALMACEN)  |  
19048;20;KGNAL2051,35 Kg(IMP-46925)  |  2282,01 Kg(IMP-46296)  |  257,64 Kg(RECEPCION)  |  164,93 Kg(RACK2 PASILLO ENTRE D Y E)  |  71,86 Kg(D4A)  |  519,97 Kg(D2E)  |  25,29 Kg(D2A)  |  420,29 Kg(D1E)  |  66,16 Kg(D1A)  |  7,99 Kg(ALMACEN)  |  
28724;110;KGNAL1013,83 Kg(IMP-46296)  |  24,98 Kg(D4E)  |  713,48 Kg(A3D)  |  
457;40;KGNAL642,6 Kg(C4B)  |  299,45 Kg(ALMACEN)  |  
453;20;KGNAL1003,5 Kg(C5C)  |  88,1 Kg(C2A)  |  
28727;50;KGNAL39,91 Kg(D3A)  |  178,08 Kg(D2E)  |  105,29 Kg(D1B)  |  36,65 Kg(ALMACEN)  |  
