47388;40;KGNAL163,6 Kg(F4C)  |  189 Kg(E3B)  |  501 Kg(E2E)  |  450 Kg(E1E)  |  101,3 Kg(ALMACEN)  |  
70915;50;KGNAL14,2 Kg(F3C)  |  10,2 Kg(F2B)  |  103 Kg(E1D)  |  
47875;80;KGNAL28,9 Kg(F5C)  |  30,3 Kg(F3D)  |  48,9 Kg(E4B)  |  16,6 Kg(ALMACEN)  |  
47893;42;KGNAL42,9 Kg(ALMACEN)  |  
67231;120;KGNAL51,8 Kg(PASILLO CELDAS 2(RECEPCION))  |  100 Kg(ALMACEN)  |  
463;230;KGNAL678,1 Kg(PASILLO CELDAS 2(RECEPCION))  |  
464;400;KGNAL392 Kg(PASILLO CELDAS 2(RECEPCION))  |  117,4 Kg(ALMACEN)  |  
67225;120;KGNAL126 Kg(C3E)  |  1871 Kg(C2E)  |  
47864;160;KGNAL1382 Kg(MAGNETRON)  |  448,5 Kg(E4B)  |  50,9 Kg(E3A)  |  32,2 Kg(E2A)  |  37 Kg(D5B)  |  
70668;150;KGNAL497 Kg(G2A)  |  429 Kg(G1A)  |  
468;150;KGNAL236,8 Kg(PASILLO CELDAS 1(RECEPCION))  |  
67233;25;KGNAL37,5 Kg(RACK1 PASILLO ENTRE B Y C)  |  156,8 Kg(PASILLO CELDAS 2(RECEPCION))  |  88,5 Kg(D4D)  |  
47811;80;KGNAL807,9 Kg(D4C)  |  232,5 Kg(D2B)  |  
47796;30;KGNAL235 Kg(RECEPCION)  |  26,7 Kg(RETAL ALMACEN)  |  6,1 Kg(RACK2 PASILLO ENTRE D Y E)  |  23 Kg(MAGNETRON)  |  23 Kg(E3D)  |  32 Kg(E1B)  |  82,8 Kg(D3B)  |  0,165 Kg(ALMACEN)  |  
47702;25;KGNAL87,2 Kg(E2D)  |  174,4 Kg(E2C)  |  416,4 Kg(E1D)  |  41,96 Kg(ALMACEN)  |  49,6 Kg(RECEPCION)  |  3,5 Kg(G5B)  |  11,5 Kg(F4D)  |  2 Kg(E5A)  |  19,6 Kg(E4D)  |  8,8 Kg(E4A)  |  
47799;25;KGNAL66,7 Kg(E5C)  |  
47387;90;KGNAL6,4 Kg(G5D)  |  38,8 Kg(F1B)  |  67 Kg(E4C)  |  
47797;46;KGNAL6,5 Kg(RETAL ALMACEN)  |  3,9 Kg(E3C)  |  43,5 Kg(E1C)  |  
47808;25;KGNAL12,7 Kg(RETAL ALMACEN)  |  5,4 Kg(MAT-INCOMP)  |  12,6 Kg(RACK2 PASILLO ENTRE D Y E)  |  180,6 Kg(E1A)  |  18,5 Kg(D5B)  |  
28719;110;KGNAL709,22 Kg(IMP-46925)  |  5992,74 Kg(IMP-46296)  |  481,19 Kg(A1B)  |  
28718;80;KGNAL4,92 Kg(MAT-INCOMP)  |  4,01 Kg(RECEPCION)  |  5951,35 Kg(MAGNETRON)  |  539,3 Kg(D5E)  |  658,5 Kg(D1B)  |  
47857;30;KGNAL60,4 Kg(RETAL ALMACEN)  |  8,4 Kg(E5C)  |  3,5 Kg(E3D)  |  23,3 Kg(E3C)  |  
28722;150;KGNAL1456,71 Kg(MALLA BOBINAS)  |  541,12 Kg(D5A)  |  650,49 Kg(D4E)  |  0,01 Kg(D2E)  |  13,05 Kg(D2A)  |  433,75 Kg(D1E)  |  1992,69 Kg(IMP-46296)  |  548 Kg(C5E)  |  106,56 Kg(C5A)  |  540,89 Kg(C1E)  |  869,72 Kg(A4D)  |  781,75 Kg(A1D)  |  
459;35;KGNAL259 Kg(C4A)  |  37,4 Kg(ALMACEN)  |  
460;70;KGNAL83,81 Kg(C3A)  |  
28721;100;KGNAL41,9 Kg(RACK2 PASILLO ENTRE D Y E)  |  224,45 Kg(D5A)  |  86,9 Kg(D1A)  |  
28720;130;KGNAL1481,89 Kg(IMP-46296)  |  111 Kg(D4A)  |  759,2 Kg(D3E)  |  746,33 Kg(D1E)  |  
