47798;10;KGNAL29,8 Kg(F4A)  |  33,8 Kg(E4B)  |  
69557;100;KGNAL4 Kg(F5C)  |  51,5 Kg(E3B)  |  138 Kg(E2E)  |  146 Kg(E2C)  |  66,3 Kg(ALMACEN)  |  
11055;80;KGNAL554,8 Kg(G3A)  |  
47684;50;KGNAL3,9 Kg(G3A)  |  911 Kg(C1C)  |  4,9 Kg(ALMACEN)  |  
67590;190;KGNAL429 Kg(D2B)  |  
466;400;KGNAL1082,4 Kg(RACK1 PASILLO ENTRE B Y C)  |  799,3 Kg(PLATAFORMA BOBINAS)  |  51,5 Kg(PASILLO CELDAS 1(RECEPCION))  |  376,2 Kg(C4B)  |  
47811;20;KGNAL9,4 Kg(G5D)  |  96,9 Kg(F5A)  |  55,7 Kg(E2B)  |  39 Kg(E1E)  |  35 Kg(ALMACEN)  |  
463;100;KGNAL2 CARRETOS352,2 Kg(RACK1 PASILLO ENTRE B Y C)  |  45,9 Kg(PASILLO CELDAS 1(RECEPCION))  |  
65402;100;KGNAL2 CARRETOS1763 Kg(RECEPCION)  |  0,303 Kg(ALMACEN)  |  
67532;30;KGNAL446,4 Kg(G4C)  |  162,8 Kg(D1D)  |  416 Kg(ALMACEN)  |  
47808;60;KGNAL12,7 Kg(RETAL ALMACEN)  |  5,4 Kg(MAT-INCOMP)  |  12,6 Kg(RACK2 PASILLO ENTRE D Y E)  |  270,9 Kg(E1A)  |  66,3 Kg(ALMACEN)  |  
67994;60;KGNAL108 Kg(F5B)  |  
28720;20;KGNAL2982,84 Kg(IMP-46296)  |  2,34 Kg(RECEPCION)  |  276,455 Kg(D2A)  |  746,33 Kg(D1E)  |  372,745 Kg(D1B)  |  280,98 Kg(ALMACEN)  |  
28717;130;KGNAL915,38 Kg(IMP-46925)  |  1436,87 Kg(IMP-46296)  |  539,71 Kg(D4A)  |  627,62 Kg(D3E)  |  27,78 Kg(D3A)  |  
28715;520;KGNAL4602,16 Kg(IMP-46925)  |  1708,21 Kg(IMP-46296)  |  21,2 Kg(REC-PROVEE)  |  26,24 Kg(D5A)  |  621,57 Kg(D4E)  |  87,3 Kg(D3A)  |  186,42 Kg(D1A)  |  20,15 Kg(C5A)  |  835,802 Kg(ALMACEN)  |  191,77 Kg(A1D)  |  
450;20;KGNAL69,6 Kg(RACK1 PASILLO ENTRE B Y C)  |  35,05 Kg(C4A)  |  361,9 Kg(C3D)  |  356,6 Kg(C3B)  |  410,4 Kg(C2A)  |  
451;110;KGNAL169,99 Kg(C4C)  |  912,85 Kg(C3E)  |  
28719;260;KGNAL709,22 Kg(IMP-46925)  |  5992,74 Kg(IMP-46296)  |  984,29 Kg(D5E)  |  21,34 Kg(D2A)  |  474,74 Kg(D1A)  |  480 Kg(B2D)  |  438,18 Kg(ALMACEN)  |  477,09 Kg(A2C)  |  481,19 Kg(A1B)  |  
28723;100;KGNAL374,31 Kg(IMP-46925)  |  1252,94 Kg(IMP-46296)  |  0,03 Kg(E1E)  |  331,38 Kg(D3E)  |  1644,46 Kg(ALMACEN)  |  
19048;90;KGNAL2051,35 Kg(IMP-46925)  |  2484,37 Kg(IMP-46296)  |  370,36 Kg(RECEPCION)  |  88,67 Kg(D3A)  |  519,97 Kg(D2E)  |  420,29 Kg(D1E)  |  201,16 Kg(D1A)  |  199,69 Kg(B3C)  |  7,99 Kg(ALMACEN)  |  
