73176;100;KGNAL276 Kg(F2C)  |  269,5 Kg(F3C)  |  282,7 Kg(F5B)  |  271,5 Kg(F4B)  |  
47796;6;KGNAL15,76 Kg(RETAL ALMACEN)  |  1777,5 Kg(MAGNETRON)  |  6,1 Kg(F1A)  |  3,9 Kg(ALMACEN)  |  
47808;20;KGNAL593,5 Kg(MAGNETRON)  |  5,4 Kg(MAT-INCOMP)  |  12,7 Kg(RETAL ALMACEN)  |  8,4 Kg(D1C)  |  4,5 Kg(F2D)  |  50,2 Kg(E3C)  |  
19049;50;KGNAL2 CARRETOS299,8 Kg(PASILLO CELDAS 2(RECEPCION))  |  102,5 Kg(RACK1 PASILLO ENTRE B Y C)  |  1776,9 Kg(MAGNETRON)  |  
67907;16;KGNAL124 Kg(E3E)  |  33,3 Kg(E3B)  |  16,3 Kg(D1C)  |  
11055;50;KGNAL7843 Kg(MAGNETRON)  |  
47855;15;KGNAL6,4 Kg(F4D)  |  15,6 Kg(F3E)  |  58 Kg(RETAL ALMACEN)  |  
468;50;KGNAL840,3 Kg(MAGNETRON)  |  
47800;12;KGNAL21,5 Kg(ALMACEN)  |  233,7 Kg(MAGNETRON)  |  12,6 Kg(D1C)  |  
47832;30;KGNAL3,3 Kg(E3A)  |  312 Kg(E1D)  |  55,8 Kg(D4D)  |  111,6 Kg(F2B)  |  
47869;18;KGNAL10,5 Kg(E4B)  |  8,8 Kg(E4D)  |  
466;480;KGNAL4967,7 Kg(PASILLO CELDAS 1(RECEPCION))  |  8913,5 Kg(PLATAFORMA BOBINAS)  |  9012,3 Kg(PASILLO CELDAS 2(RECEPCION))  |  
446;50;KGNAL2 CARRETOS1154,7 Kg(B1B)  |  473,3 Kg(C1D)  |  88,5 Kg(C3B)  |  76,9 Kg(C5A)  |  692,9 Kg(C5B)  |  11,9 Kg(RETAL ALMACEN)  |  205 Kg(MAGNETRON)  |  
47824;402;KGNAL6,1 Kg(D2D)  |  304 Kg(D1D)  |  8,4 Kg(E2B)  |  11,3 Kg(E3C)  |  52,22 Kg(F3A)  |  20,9 Kg(ALMACEN)  |  
47823;20;KGNAL47,8 Kg(G1E)  |  73,1 Kg(RETAL ALMACEN)  |  10,2 Kg(E3C)  |  103,3 Kg(D4C)  |  270 Kg(D2C)  |  
39010;380;KGNAL164,2 Kg(G1A)  |  2344 Kg(MAGNETRON)  |  
68347;47;KGNAL7,2 Kg(E1B)  |  40,9 Kg(D4B)  |  
28718;850;KGNAL1002,44 Kg(A2C)  |  2561,82 Kg(MALLA BOBINAS)  |  5136,17 Kg(MAGNETRON)  |  4,92 Kg(MAT-INCOMP)  |  511,51 Kg(D2E)  |  1537,32 Kg(C1E)  |  751,09 Kg(C2E)  |  500,02 Kg(B3D)  |  82,91 Kg(D2A)  |  492,32 Kg(D1B)  |  
28715;100;KGNAL41,75 Kg(D3A)  |  230,41 Kg(D4A)  |  735,32 Kg(D5B)  |  400,65 Kg(D1A)  |  1,07 Kg(D2A)  |  1744,16 Kg(IMP-46925)  |  21,2 Kg(REC-PROVEE)  |  2,242 Kg(ALMACEN)  |  639,1 Kg(MAGNETRON)  |  
28716;360;KGNAL7,7 Kg(ALMACEN)  |  343,56 Kg(MALLA BOBINAS)  |  2320,61 Kg(MAGNETRON)  |  80,35 Kg(D2E)  |  
28721;50;KGNAL1200,25 Kg(MAGNETRON)  |  48 Kg(D1A)  |  747,75 Kg(B2D)  |  685,6 Kg(B1D)  |  
28717;40;KGNAL253,36 Kg(D1A)  |  587,26 Kg(D5E)  |  29,42 Kg(D4A)  |  18,28 Kg(D3A)  |  1436,87 Kg(IMP-46296)  |  915,38 Kg(IMP-46925)  |  10,23 Kg(ALMACEN)  |  5484,32 Kg(MAGNETRON)  |  
