67227;50;KGNALEMPAPELDORA476,5 Kg(Q6A)  |  120 Kg(PMG)  |  1035,5 Kg(PMF)  |  381 Kg(PMD)  |  883 Kg(PMC)  |  121,55 Kg(C1D)  |  248,5 Kg(ALMACEN)  |  
47830;80;KGNAL179,78 Kg(N-LAMINACO)  |  3 Kg(F3D)  |  393,2 Kg(E1E)  |  544,2 Kg(D4D)  |  3 Kg(ALMACEN)  |  
19049;40;KGNAL40,8 Kg(RACK2 PASILLO ENTRE D Y E)  |  1202,7 Kg(PASILLO CELDAS 2(RECEPCION))  |  
67995;100;KGNAL242 Kg(E4E)  |  9,9 Kg(E2E)  |  81 Kg(D2C)  |  
448;280;KGNAL700 Kg(CENTELSA)  |  48,6 Kg(C4A)  |  382,9 Kg(C3C)  |  772,7 Kg(C2A)  |  
466;608;KGNAL250,5 Kg(RACK1 PASILLO ENTRE B Y C)  |  307,6 Kg(PLATAFORMA BOBINAS)  |  51,5 Kg(PASILLO CELDAS 1(RECEPCION))  |  
67229;20;KGNAL190 Kg(D5C)  |  69,5 Kg(ALMACEN)  |  
443;30;KGNAL10,55 Kg(RECEPCION)  |  599,6 Kg(C5D)  |  368,6 Kg(C3D)  |  131,2 Kg(C3A)  |  
67236;100;KGNAL540 Kg(D2D)  |  419,945 Kg(C2C)  |  
28718;280;KGNAL4,92 Kg(MAT-INCOMP)  |  62,77 Kg(D5A)  |  4 Kg(D4A)  |  84,71 Kg(D2A)  |  516,33 Kg(D1A)  |  
460;80;KGNAL483,35 Kg(CENTELSA)  |  783,6 Kg(C3A)  |  555,36 Kg(C2D)  |  
458;380;KGNAL14,8 Kg(RACK1 PASILLO ENTRE B Y C)  |  591,6 Kg(C4D)  |  58,5 Kg(C3C)  |  1088 Kg(C2B)  |  0,33 Kg(ALMACEN)  |  
28721;30;KGNAL561,32 Kg(IMP-46296)  |  4,13 Kg(E2E)  |  137,97 Kg(D5A)  |  14,92 Kg(ALMACEN)  |  503,86 Kg(A2C)  |  
456;200;KGNAL68 Kg(ALMACEN)  |  
27308;40;KGNAL539 Kg(PASILLO CELDAS 1(RECEPCION))  |  44,6 Kg(G2A)  |  128 Kg(ALMACEN)  |  
67917;40;KGNAL104,4 Kg(F5D)  |  
47387;20;KGNAL6,4 Kg(G5D)  |  170,4 Kg(F1B)  |  71,4 Kg(E4B)  |  0,6 Kg(E2E)  |  72,6 Kg(D5B)  |  402 Kg(D2B)  |  
67236;140;KGNAL540 Kg(D2D)  |  52 Kg(C4A)  |  209,945 Kg(C2C)  |  
47856;90;KGNAL1903,6 Kg(MAT-INCOMP)  |  12,6 Kg(E2A)  |  5,8 Kg(D5C)  |  106 Kg(D3C)  |  15,3 Kg(ALMACEN)  |  
67229;130;KGNAL142 Kg(D5C)  |  69,5 Kg(ALMACEN)  |  
448;140;KGNAL700 Kg(CENTELSA)  |  48,6 Kg(C4A)  |  94,8 Kg(C3C)  |  772,7 Kg(C2A)  |  
443;15;KGNAL10,55 Kg(RECEPCION)  |  599,6 Kg(C5D)  |  368,6 Kg(C3D)  |  95,2 Kg(C3A)  |  
47806;240;KGNAL10,9 Kg(MAT-INCOMP)  |  29,9 Kg(F5D)  |  71 Kg(F5A)  |  476 Kg(F1A)  |  693 Kg(D4C)  |  21,6 Kg(D3C)  |  55,4 Kg(D2C)  |  59,34 Kg(ALMACEN)  |  
28718;400;KGNAL4,92 Kg(MAT-INCOMP)  |  62,77 Kg(D5A)  |  4 Kg(D4A)  |  84,71 Kg(D2A)  |  234 Kg(D1A)  |  
28717;170;KGNAL915,38 Kg(IMP-46925)  |  1436,87 Kg(IMP-46296)  |  324,48 Kg(D4A)  |  627,62 Kg(D3E)  |  27,78 Kg(D3A)  |  
28715;120;KGNAL4602,16 Kg(IMP-46925)  |  1708,21 Kg(IMP-46296)  |  21,2 Kg(REC-PROVEE)  |  26,24 Kg(D5A)  |  162,42 Kg(D4E)  |  88,91 Kg(D4A)  |  87,3 Kg(D3A)  |  52,182 Kg(D1A)  |  20,15 Kg(C5A)  |  191,77 Kg(A1D)  |  
445;210;KGNAL568,5 Kg(C5B)  |  41 Kg(C1A)  |  42,716 Kg(ALMACEN)  |  
28720;20;KGNAL2982,84 Kg(IMP-46296)  |  746,33 Kg(D1E)  |  243,735 Kg(ALMACEN)  |  
28723;30;KGNAL374,31 Kg(IMP-46925)  |  1535,98 Kg(PASILLO CELDAS 1(RECEPCION))  |  502,29 Kg(D4E)  |  975,03 Kg(D3E)  |  108,48 Kg(ALMACEN)  |  
460;110;KGNAL483,35 Kg(CENTELSA)  |  697,28 Kg(C3A)  |  555,36 Kg(C2D)  |  
458;170;KGNAL14,8 Kg(RACK1 PASILLO ENTRE B Y C)  |  591,6 Kg(C4D)  |  695,7 Kg(C2B)  |  58,5 Kg(C1A)  |  0,33 Kg(ALMACEN)  |  
28724;30;KGNAL1013,83 Kg(IMP-46296)  |  0,04 Kg(D4E)  |  20,6 Kg(D2A)  |  120,9 Kg(C5A)  |  171,23 Kg(ALMACEN)  |  775,73 Kg(A3D)  |  
16995;60;KGNAL448,08 Kg(C2D)  |  140 Kg(C1B)  |  
19048;190;KGNAL2051,35 Kg(IMP-46925)  |  2484,37 Kg(IMP-46296)  |  257,64 Kg(RECEPCION)  |  164,93 Kg(RACK2 PASILLO ENTRE D Y E)  |  71,86 Kg(D4A)  |  519,97 Kg(D2E)  |  346,52 Kg(D2A)  |  420,29 Kg(D1E)  |  66,16 Kg(D1A)  |  7,99 Kg(ALMACEN)  |  
28725;220;KGNAL516,04 Kg(RECEPCION)  |  500 Kg(PASILLO CELDAS 1(RECEPCION))  |  519,94 Kg(D1B)  |  200,27 Kg(C5A)  |  
70556;70;KGNAL27,16 Kg(RECEPCION)  |  37,1 Kg(G5B)  |  3,4 Kg(G5A)  |  24,6 Kg(G4D)  |  
