70556;50;KGNALTERMINALES27,16 Kg(RECEPCION)  |  37,1 Kg(G5B)  |  3,4 Kg(G5A)  |  24,6 Kg(G4D)  |  56 Kg(G4A)  |  12,6 Kg(G3D)  |  167,5 Kg(G2C)  |  
71905;60;KGNALTERMINALES51,5 Kg(G5A)  |  712,5 Kg(G2D)  |  548 Kg(G1D)  |  
463;460;KGNAL504,6 Kg(RACK1 PASILLO ENTRE B Y C)  |  515,7 Kg(PASILLO CELDAS 1(RECEPCION))  |  
464;1600;KGNAL67 Kg(PME)  |  46,6 Kg(PMD)  |  401,8 Kg(PMB)  |  49,1 Kg(PMA)  |  
470;290;KGNAL988 Kg(RECEPCION)  |  44,69 Kg(G3A)  |  301,5 Kg(G2A)  |  537 Kg(G1A)  |  0,1 Kg(F5D)  |  
19049;25;KGNAL40,8 Kg(RACK2 PASILLO ENTRE D Y E)  |  1308,2 Kg(PASILLO CELDAS 2(RECEPCION))  |  38 Kg(D5C)  |  
29368;22;KGNAL109,7 Kg(PASILLO CELDAS 1(RECEPCION))  |  22 Kg(D5C)  |  
47387;240;KGNAL300 Kg(D3C)  |  
67676;170;KGNAL52,9 Kg(G3D)  |  122,8 Kg(F5B)  |  12,5 Kg(F1A)  |  11,6 Kg(E3E)  |  7,6 Kg(E2B)  |  200 Kg(E1B)  |  
67993;110;KGNAL62,3 Kg(F4C)  |  81 Kg(E5A)  |  125,2 Kg(E4C)  |  13 Kg(E3A)  |  84,9 Kg(D3B)  |  
69557;50;KGNAL167,3 Kg(RECEPCION)  |  4 Kg(F5C)  |  66,3 Kg(ALMACEN)  |  
466;260;KGNAL3 ROLLOS3219,8 Kg(PLATAFORMA BOBINAS)  |  2432,9 Kg(PASILLO CELDAS 1(RECEPCION))  |  
446;30;KGNAL11,9 Kg(RETAL ALMACEN)  |  1199,9 Kg(RECEPCION)  |  708,2 Kg(C1D)  |  1154,7 Kg(B2D)  |  
47796;20;KGNAL26,7 Kg(RETAL ALMACEN)  |  258 Kg(RECEPCION)  |  6,1 Kg(RACK2 PASILLO ENTRE D Y E)  |  84,5 Kg(F4C)  |  66,6 Kg(F2E)  |  10 Kg(F2A)  |  106,8 Kg(E3A)  |  
67912;20;KGNAL28,6 Kg(F4C)  |  14 Kg(E3A)  |  18,7 Kg(ALMACEN)  |  
58377;1;ROLLONAL20 Kg(O.TRABAJO)  |  457 Kg(B2B)  |  
28718;480;KGNAL1753,37 Kg(IMP-46296)  |  4,92 Kg(MAT-INCOMP)  |  1181,02 Kg(PASILLO CELDAS 1(RECEPCION))  |  
454;470;KGNAL1018,6 Kg(RECEPCION)  |  46 Kg(RACK1 PASILLO ENTRE B Y C)  |  297,2 Kg(C4B)  |  735,6 Kg(C3D)  |  75,46 Kg(ALMACEN)  |  
28720;60;KGNAL2982,84 Kg(IMP-46296)  |  25,87 Kg(RECEPCION)  |  213,76 Kg(D4A)  |  351,665 Kg(D2A)  |  746,33 Kg(D1E)  |  372,745 Kg(D1B)  |  280,98 Kg(ALMACEN)  |  
28716;20;KGNAL526,5 Kg(PASILLO CELDAS 1(RECEPCION))  |  285,78 Kg(D3A)  |  7,7 Kg(ALMACEN)  |  
28725;60;KGNAL1035,98 Kg(RECEPCION)  |  500 Kg(PASILLO CELDAS 1(RECEPCION))  |  287,21 Kg(C5A)  |  
28724;100;KGNAL1013,83 Kg(IMP-46296)  |  20,64 Kg(D4E)  |  432,13 Kg(B1D)  |  171,23 Kg(ALMACEN)  |  775,73 Kg(A3D)  |  
28726;40;KGNAL526,12 Kg(IMP-46925)  |  514,97 Kg(IMP-46296)  |  183,28 Kg(D5A)  |  42,73 Kg(C5A)  |  2,3 Kg(ALMACEN)  |  
460;50;KGNAL483,35 Kg(CENTELSA)  |  1519,85 Kg(RECEPCION)  |  141,55 Kg(C4B)  |  
28727;30;KGNAL178,08 Kg(D2E)  |  146,43 Kg(D1B)  |  141,94 Kg(ALMACEN)  |  
28722;25;KGNAL1992,69 Kg(IMP-46296)  |  1144,83 Kg(RECEPCION)  |  779,44 Kg(PASILLO CELDAS 1(RECEPCION))  |  323,42 Kg(D4E)  |  51,29 Kg(D4A)  |  0,01 Kg(D2E)  |  433,75 Kg(D1E)  |  541,12 Kg(C3E)  |  540,89 Kg(C1E)  |  311,88 Kg(B4C)  |  302,29 Kg(B3C)  |  650,49 Kg(ALMACEN)  |  869,72 Kg(A4D)  |  1386 Kg(A1D)  |  
457;160;KGNAL881 Kg(C4B)  |  299,45 Kg(ALMACEN)  |  
458;80;KGNAL450,2 Kg(RECEPCION)  |  1097,6 Kg(C4D)  |  85,9 Kg(C3A)  |  1088 Kg(C2B)  |  44 Kg(C2A)  |  29,83 Kg(ALMACEN)  |  
28723;60;KGNAL1910,29 Kg(IMP-46925)  |  1252,94 Kg(IMP-46296)  |  0,03 Kg(E1E)  |  700,26 Kg(D3E)  |  108,48 Kg(ALMACEN)  |  
