446;90;KGNAL11,9 Kg(RETAL ALMACEN)  |  260 Kg(RECEPCION)  |  214,6 Kg(C3D)  |  891,4 Kg(C3B)  |  473,3 Kg(C1D)  |  894,7 Kg(B2D)  |  
47702;15;KGNAL224 Kg(RECEPCION)  |  3,5 Kg(F5E)  |  11,5 Kg(F4D)  |  112,2 Kg(F4B)  |  25,8 Kg(F3D)  |  2 Kg(E5A)  |  19,6 Kg(E4D)  |  8,8 Kg(E4A)  |  348,8 Kg(E2C)  |  416,4 Kg(E1D)  |  30,9 Kg(D5B)  |  41,96 Kg(ALMACEN)  |  
47803;80;KGNAL4 Kg(F5C)  |  51,5 Kg(E2E)  |  1,4 Kg(ALMACEN)  |  
47866;30;KGNAL34,2 Kg(RETAL ALMACEN)  |  8,5 Kg(G5D)  |  3,1 Kg(E5A)  |  
47799;10;KGNAL77,8 Kg(E5C)  |  
67587;210;KGNAL226 Kg(G4B)  |  11,8 Kg(E5D)  |  
67233;320;KGNAL541,8 Kg(ALMACEN)  |  
47905;250;KGNAL266 Kg(E5C)  |  
476;290;KGNAL1467,9 Kg(PASILLO CELDAS 1(RECEPCION))  |  19 Kg(G3A)  |  29,4 Kg(ALMACEN)  |  
470;70;KGNAL2 ROLLOS988 Kg(RECEPCION)  |  19,59 Kg(G2A)  |  326,9 Kg(G1A)  |  0,1 Kg(F5D)  |  
11056;30;KGNAL965 Kg(RECEPCION)  |  
47388;20;KGNAL163,6 Kg(F4C)  |  125,7 Kg(ALMACEN)  |  
47819;500;KGNAL11,5 Kg(F5E)  |  576 Kg(F2D)  |  82,6 Kg(E2B)  |  60,3 Kg(E1A)  |  17,6 Kg(D4C)  |  
28715;270;KGNAL4602,16 Kg(IMP-46925)  |  1203,42 Kg(IMP-46296)  |  21,2 Kg(REC-PROVEE)  |  86,43 Kg(RECEPCION)  |  26,24 Kg(D5A)  |  77,59 Kg(D4E)  |  35,6 Kg(D3A)  |  52,182 Kg(D1A)  |  20,15 Kg(C5A)  |  191,77 Kg(A1D)  |  
16994;100;KGNAL45,95 Kg(C1A)  |  104,7 Kg(ALMACEN)  |  
455;20;KGNAL231,6 Kg(C2C)  |  64,47 Kg(ALMACEN)  |  
460;80;KGNAL483,35 Kg(CENTELSA)  |  0,42 Kg(C2D)  |  
67224;150;KGNALEMPAPELADORA250 Kg(C4C)  |  0,5 Kg(ALMACEN)  |  
